{
    "maxThreadNum": 4,
    "useSearchCount": 10000,
    "useSearchLimit": 200,
    "market": ["EBAY_US"],
    "auth": [{
            "appid": "-pecoo-PRD-95d337f40-44d3fdde",
            "certid": "PRD-5d337f4034d0-b4a8-42e1-9c7f-124b"
        },
        {
            "appid": "ab-pecoogao-PRD-f7aae610e-32255fc8",
            "certid": "PRD-7aae610e385c-1d0a-47eb-a6a3-26c3"

        }
    ],
    "filterCategoryIds": ["37919"],
    "filterSellers": ["inverlawantiques", "bonher40", "pushkin.antiques", "raja_rani_handicrafts", "dings168", "winghang-international-2009", "soldthelot", "honesty-seller-ly9999", "tibetheaven", "wesley-virtu6696", "beijingshop666", "ebchina2013", "antiqueshop880", "honesty-seller998", "hongxiang8998", "fenglingyuqi8088", "happyshop6699", "sherryv2010", "bangjiao99", "goldentreasures29", "baoming-collection", "amuletsshop", "galleryoff5th", "centerstageantiques", "ratgallery", "gablesauction", "zbrothersfurniturenj", "dadastuff", "chrisbuckman", "ruih338", "kingschina", "christie-store99", "dongxiart888", "pingsgifts", "ling6985", "du5668", "dandan8868", "hongshanculture-shop1998", "3realm", "hullbridge2", "honesty-shop998", "worldshop8880", "thangka-shop8898", "hongshan-culture999", "cuizhishop2012", "tibet-temple888"],
    "filterOther": "price:[1..10000],priceCurrency:USD,buyingOptions:{FIXED_PRICE},deliveryCountry:US",
    "searchWords": ["Baskets", "Bowls", "Boxes", "Cabinets", "Chairs", "Chests", "Glasses Cups", "Necklaces Pendants", "Plates", "Pots", "Snuff Bottles", "Tables", "Vases", "Paintings Scrolls", "Other Antique Chinese Statues", "Buddha", "Dragons", "Elephants", "Horses", "Kwan-yin", "Men, Women Children", "Birds", "Dogs", "Foo Dogs", "Mice", "Monkeys", "Oxen", "Phoenix", "Pigs", "Rabbits", "Rats", "Roosters", "Sheep", "Snakes", "Tigers", "Turtles", "Other Chinese Antiques", "Robes Textiles", "Amulets", "Armor", "Bells", "Fans", "Incense Burners", "Ink Stones", "Masks", "Rings", "Seals", "Swords", "Tea Caddies", "Teapots", "Bracelets", "Brush Pots", "Brush Washers"]
}